…
# makie code is commented out, instead we will pass the data to R for rayshader.
# surface(data; shading = NoShading, colormap = :deep)
# surface(data; shading = NoShading, colormap = :deep)
```

convert the matrix to dataframe and save it off as an arrow file for R

``` julia
using Arrow 
using DataFrames

laplace_df = DataFrame(data, :auto)
```

    150×150 DataFrame
     Row │ x1          x2         x3         x4         x5         x6         x7   ⋯
         │ Float64     Float64    Float64    Float64    Float64    Float64    Floa ⋯
    ─────┼──────────────────────────────────────────────────────────────────────────
       1 │ -2.13805    -1.94965   -2.10359   -2.48174   -2.42099   -2.67788   -4.0 ⋯
       2 │ -1.02904    -1.04465   -1.68999   -2.11412   -2.44765   -3.29165   -4.1
       3 │ -1.61541    -0.856065  -1.9808    -2.59396   -2.52635   -3.53037   -4.6
       4 │ -1.57751    -1.39463   -1.7793    -2.81635   -3.41164   -3.8532    -4.5
       5 │ -0.833541   -0.917326  -0.860234  -1.9965    -2.57298   -2.8754    -3.5 ⋯
       6 │ -0.544637   -0.580403  -1.63535   -1.68791   -1.57463   -1.79414   -1.9
       7 │ -0.793416   -1.10866   -1.42821   -1.86227   -1.76905   -1.69462   -1.8
       8 │ -1.16538    -1.0411    -1.19002   -1.13643   -0.787755  -0.407784  -0.8
      ⋮  │     ⋮           ⋮          ⋮          ⋮          ⋮          ⋮           ⋱
     144 │  1.35339     1.43253    1.37181    1.74211    2.0665     3.00317    3.3 ⋯
     145 │  1.42905     1.85022    2.04163    1.33177    1.77917    2.20661    3.0
     146 │  0.89054     1.24337    1.01869    0.909277   1.36002    0.977153   1.7
     147 │  0.114869    0.149387  -0.173205  -0.191221  -0.261122  -0.414318   0.2
     148 │ -1.11646    -0.191676  -0.892522  -0.325694  -0.94129   -1.13833   -0.4 ⋯
     149 │ -2.48818    -2.00189   -1.59932   -1.85026   -1.5952    -1.69063   -0.9
     150 │ -3.22367    -2.81377   -2.71081   -1.97549   -2.05071   -2.14482   -1.2
                                                    144 columns and 135 rows omitted
…
